{
  "name": "jwilkicki-app",
  "version": "0.1.0",
  "author": "jwilkicki",
  "summary": "Configure application server for CI/CD example",
  "license": "BSD",
  "source": "",
  "project_page": null,
  "issues_url": null,
  "dependencies": [
    {
      "name": "puppetlabs-stdlib",
      "version_requirement": ">= 1.0.0"
    }
  ],
  "data_provider": null
}

